sample_ID,experiment,center,virus,patient,tissue,time_hours,treatment
rotaM01,Estes_Saxena,Baylor,rotavirus_Ito,J2,jejunum,6,mock
rotaM02,Estes_Saxena,Baylor,rotavirus_Ito,J11,jejunum,6,mock
rotaV01,Estes_Saxena,Baylor,rotavirus_Ito,J2,jejunum,6,virus
rotaV02,Estes_Saxena,Baylor,rotavirus_Ito,J11,jejunum,6,virus
astroM01,Wobus_Kolawole,Michigan,astrovirus_VA1,D124,duodenum,24,mock
astroM02,Wobus_Kolawole,Michigan,astrovirus_VA1,D124,duodenum,24,mock
astroM03,Wobus_Kolawole,Michigan,astrovirus_VA1,D124,duodenum,24,mock
astroV01,Wobus_Kolawole,Michigan,astrovirus_VA1,D124,duodenum,24,virus
astroV02,Wobus_Kolawole,Michigan,astrovirus_VA1,D124,duodenum,24,virus
astroV03,Wobus_Kolawole,Michigan,astrovirus_VA1,D124,duodenum,24,virus
noroM01,Goodfellow_Hosmillo,Cambridge,norovirus_GII4,TI365,ileum,48,mock
noroM02,Goodfellow_Hosmillo,Cambridge,norovirus_GII4,TI365,ileum,48,mock
noroM03,Goodfellow_Hosmillo,Cambridge,norovirus_GII4,TI365,ileum,48,mock
noroM04,Goodfellow_Hosmillo,Cambridge,norovirus_GII4,TI006,ileum,48,mock
noroM05,Goodfellow_Hosmillo,Cambridge,norovirus_GII4,TI006,ileum,48,mock
noroM06,Goodfellow_Hosmillo,Cambridge,norovirus_GII4,TI006,ileum,48,mock
noroV01,Goodfellow_Hosmillo,Cambridge,norovirus_GII4,TI365,ileum,48,virus
noroV02,Goodfellow_Hosmillo,Cambridge,norovirus_GII4,TI365,ileum,48,virus
noroV03,Goodfellow_Hosmillo,Cambridge,norovirus_GII4,TI365,ileum,48,virus
noroV04,Goodfellow_Hosmillo,Cambridge,norovirus_GII4,TI006,ileum,48,virus
noroV05,Goodfellow_Hosmillo,Cambridge,norovirus_GII4,TI006,ileum,48,virus
noroV06,Goodfellow_Hosmillo,Cambridge,norovirus_GII4,TI006,ileum,48,virus
